<?xml version="1.0" encoding="iso-8859-1"?>
<!-- Generator: Adobe Illustrator 16.0.0, SVG Export Plug-In . SVG Version: 6.00 Build 0)  -->
<!DOCTYPE svg PUBLIC "-//W3C//DTD SVG 1.1//EN" "http://www.w3.org/Graphics/SVG/1.1/DTD/svg11.dtd">
<svg version="1.1" id="Capa_1" xmlns="http://www.w3.org/2000/svg" xmlns:xlink="http://www.w3.org/1999/xlink" x="0px" y="0px"
	 width="265.136px" height="265.136px" viewBox="0 0 265.136 265.136" style="enable-background:new 0 0 265.136 265.136;"
	 xml:space="preserve">
<g>
	<g>
		<path d="M0,63.227V228.08c0,3.958,3.206,7.169,7.168,7.169h37.309c3.962,0,7.169-3.211,7.169-7.169v-39.469h161.84v39.469
			c0,3.958,3.206,7.169,7.169,7.169h37.313c3.957,0,7.168-3.211,7.168-7.169V138.43c0-3.958-3.211-7.169-7.168-7.169H51.641V63.227
			c0-3.958-3.206-7.168-7.169-7.168H7.168C3.206,56.059,0,59.27,0,63.227z M14.337,70.396h22.972v68.034
			c0,3.958,3.208,7.169,7.168,7.169h206.322v75.312h-22.976v-39.47c0-3.958-3.207-7.169-7.169-7.169H44.472
			c-3.962,0-7.168,3.211-7.168,7.169v39.47H14.337V70.396z"/>
		<path d="M59.169,79.074v44.626h45.42v-7.168c0-20.307-17.521-37.458-38.252-37.458H59.169z M73.506,94.52
			c7.236,2.284,13.084,7.88,15.522,14.844H73.506V94.52z"/>
		<path d="M199.574,57.071c0-14.993-12.195-27.184-27.19-27.184c-14.991,0-27.187,12.195-27.187,27.184
			c0,14.986,12.195,27.188,27.187,27.188C187.378,84.259,199.574,72.057,199.574,57.071z M159.535,57.071
			c0-7.083,5.764-12.846,12.849-12.846c7.089,0,12.853,5.764,12.853,12.846c0,7.087-5.764,12.851-12.853,12.851
			C165.298,69.922,159.535,64.158,159.535,57.071z"/>
		<path d="M135.516,121.311h14.334c0-13.996,5.06-18.041,22.533-18.041c17.482,0,22.532,4.049,22.532,18.041h14.338
			c0-32.378-26.785-32.378-36.87-32.378C162.302,88.933,135.516,88.933,135.516,121.311z"/>
	</g>
</g>
<g>
</g>
<g>
</g>
<g>
</g>
<g>
</g>
<g>
</g>
<g>
</g>
<g>
</g>
<g>
</g>
<g>
</g>
<g>
</g>
<g>
</g>
<g>
</g>
<g>
</g>
<g>
</g>
<g>
</g>
</svg>
